[
null,
{"id":1,"expParams":[10,40,50,50],"traits":[{"code":23,"dataId":0,"value":1},{"code":22,"dataId":0,"value":0.95},{"code":22,"dataId":1,"value":0.05},{"code":22,"dataId":2,"value":0.04},{"code":41,"dataId":1,"value":0},{"code":51,"dataId":2,"value":0},{"code":51,"dataId":1,"value":0},{"code":52,"dataId":1,"value":0},{"code":52,"dataId":3,"value":0},{"code":52,"dataId":5,"value":0},{"code":41,"dataId":2,"value":1}],"learnings":[{"level":1,"note":"","skillId":8},{"level":1,"note":"","skillId":10},{"level":5,"note":"","skillId":3},{"level":10,"note":"","skillId":4},{"level":15,"note":"","skillId":5},{"level":20,"note":"","skillId":12},{"level":10,"note":"","skillId":11},{"level":10,"note":"","skillId":9},{"level":5,"note":"","skillId":15},{"level":50,"note":"","skillId":13},{"level":30,"note":"","skillId":14},{"level":20,"note":"","skillId":19},{"level":20,"note":"","skillId":20},{"level":20,"note":"","skillId":21},{"level":20,"note":"","skillId":22}],"name":"Swordsman","note":"","params":[[1,800,894,988,1082,1176,1270,1364,1458,1551,1645,1739,1833,1927,2021,2115,2209,2302,2396,2490,2584,2678,2772,2866,2959,3053,3147,3241,3335,3429,3523,3617,3710,3804,3898,3992,4086,4180,4274,4367,4461,4555,4649,4743,4837,4931,5025,5118,5212,5306,5400,5494,5588,5682,5775,5869,5963,6057,6151,6245,6339,6433,6526,6620,6714,6808,6902,6996,7090,7183,7277,7371,7465,7559,7653,7747,7841,7934,8028,8122,8216,8310,8404,8498,8591,8685,8779,8873,8967,9061,9155,9249,9342,9436,9530,9624,9718,9812,9906,9999],[0,96,98,101,106,113,122,134,147,162,180,200,221,245,271,299,329,360,394,431,469,509,551,596,642,690,741,794,848,905,964,1025,1087,1152,1219,1288,1360,1433,1508,1585,1665,1746,1830,1915,2003,2093,2185,2278,2374,2472,2572,2674,2778,2885,2993,3103,3216,3330,3447,3565,3686,3809,3933,4060,4189,4320,4453,4588,4725,4864,5006,5149,5294,5442,5591,5743,5897,6052,6210,6370,6532,6696,6862,7030,7200,7372,7546,7723,7901,8082,8264,8449,8635,8824,9015,9208,9402,9599,9798,9999],[1,99,110,120,130,140,150,160,170,180,190,200,209,219,229,239,249,259,269,278,288,298,308,317,327,337,346,356,365,375,385,394,404,413,423,432,442,451,460,470,479,489,498,507,517,526,535,544,554,563,572,581,590,599,609,618,627,636,645,654,663,672,681,690,699,708,717,725,734,743,752,761,770,778,787,796,804,813,822,830,839,848,856,865,873,882,890,899,907,916,924,933,941,950,958,966,975,983,991,999],[1,20,30,40,50,60,70,80,90,100,110,120,130,140,150,160,170,180,190,200,210,220,230,240,250,260,270,280,290,300,310,320,330,340,350,360,370,380,390,400,410,420,430,440,450,460,470,480,490,500,510,520,530,540,550,560,570,580,590,600,610,620,630,640,650,660,670,680,690,700,710,720,730,740,750,760,770,780,790,800,810,820,830,840,850,860,870,880,890,900,910,920,930,940,950,960,970,980,990,999],[1,16,17,17,17,17,17,17,17,17,17,17,18,18,18,18,18,19,19,19,20,20,20,21,21,22,22,22,23,23,24,24,25,25,26,27,27,28,28,29,30,30,31,32,33,33,34,35,36,37,37,38,39,40,41,42,43,44,45,46,47,48,49,50,51,52,53,55,56,57,58,59,61,62,63,64,66,67,68,70,71,72,74,75,77,78,80,81,83,84,86,87,89,91,92,94,95,97,99,100],[1,16,17,18,19,20,20,21,22,23,24,25,25,26,27,28,29,30,31,32,33,34,35,36,37,38,40,41,42,43,44,45,46,48,49,50,51,53,54,55,57,58,59,61,62,63,65,66,68,69,70,72,73,75,76,78,80,81,83,84,86,88,89,91,93,94,96,98,99,101,103,105,106,108,110,112,114,116,118,119,121,123,125,127,129,131,133,135,137,139,141,143,145,148,150,152,154,156,158,160],[1,32,48,64,79,95,110,125,140,155,170,184,199,213,228,242,256,270,283,297,311,324,337,351,364,377,389,402,415,427,440,452,464,476,488,499,511,523,534,545,556,567,578,589,600,610,621,631,641,651,661,671,681,690,700,709,718,727,736,745,754,762,771,779,787,795,803,811,819,827,834,842,849,856,863,870,877,883,890,896,903,909,915,921,927,932,938,943,949,954,959,964,969,974,978,983,987,991,995,999],[1,32,33,33,33,34,35,36,37,39,41,43,45,47,50,52,55,58,62,65,69,73,77,81,86,90,95,101,106,111,117,123,129,136,142,149,156,163,170,178,186,194,202,210,219,227,236,246,255,264,274,284,294,305,315,326,337,348,360,371,383,395,407,420,432,445,458,471,484,498,512,526,540,554,569,584,599,614,629,645,661,677,693,710,726,743,760,777,795,812,830,848,866,885,903,922,941,960,980,999]]},
{"id":2,"expParams":[10,40,50,50],"traits":[{"code":23,"dataId":0,"value":1},{"code":22,"dataId":0,"value":0.95},{"code":22,"dataId":1,"value":0.05},{"code":22,"dataId":2,"value":0.04},{"code":41,"dataId":1,"value":0},{"code":51,"dataId":3,"value":0},{"code":52,"dataId":1,"value":0},{"code":52,"dataId":3,"value":0},{"code":52,"dataId":5,"value":0},{"code":52,"dataId":2,"value":1},{"code":41,"dataId":2,"value":1}],"learnings":[{"level":1,"note":"","skillId":10},{"level":1,"note":"","skillId":9},{"level":1,"note":"","skillId":11},{"level":1,"note":"","skillId":15},{"level":1,"note":"","skillId":8},{"level":5,"note":"","skillId":3},{"level":10,"note":"","skillId":4},{"level":15,"note":"","skillId":5},{"level":20,"note":"","skillId":12},{"level":25,"note":"","skillId":13},{"level":10,"note":"","skillId":14},{"level":10,"note":"","skillId":22},{"level":10,"note":"","skillId":19},{"level":10,"note":"","skillId":21},{"level":10,"note":"","skillId":20}],"name":"Mage","note":"","params":[[1,450,500,550,601,653,707,761,816,872,929,987,1047,1107,1168,1230,1293,1357,1422,1489,1556,1624,1693,1763,1834,1906,1979,2053,2128,2204,2281,2360,2439,2519,2600,2682,2765,2849,2934,3020,3107,3195,3284,3374,3465,3557,3650,3744,3838,3934,4031,4129,4228,4328,4429,4531,4634,4738,4843,4949,5055,5163,5272,5382,5493,5605,5718,5832,5946,6062,6179,6297,6416,6535,6656,6778,6901,7025,7149,7275,7402,7530,7658,7788,7919,8051,8183,8317,8452,8588,8724,8862,9001,9140,9281,9423,9565,9709,9854,9999],[0,103,248,398,547,695,841,987,1132,1276,1419,1561,1701,1841,1980,2118,2254,2390,2524,2658,2790,2922,3052,3182,3310,3437,3564,3689,3813,3936,4059,4180,4300,4419,4537,4654,4770,4885,4999,5112,5224,5335,5444,5553,5661,5768,5873,5978,6082,6184,6286,6386,6486,6584,6682,6778,6874,6968,7061,7154,7245,7335,7424,7512,7600,7686,7771,7855,7938,8020,8101,8181,8259,8337,8414,8490,8565,8638,8711,8783,8853,8923,8992,9059,9126,9191,9256,9319,9381,9443,9503,9562,9621,9678,9734,9789,9843,9896,9948,9999],[1,5,6,6,6,7,8,9,11,12,14,16,18,20,23,26,29,32,35,39,43,47,51,56,60,65,70,75,81,87,93,99,105,111,118,125,132,140,147,155,163,171,179,188,197,206,215,225,234,244,254,264,275,285,296,307,319,330,342,354,366,378,391,403,416,429,443,456,470,484,498,513,527,542,557,572,588,603,619,635,651,668,685,701,719,736,753,771,789,807,825,844,863,882,901,920,940,959,979,999],[0,16,17,17,17,17,17,17,18,18,18,19,19,20,20,21,22,22,23,24,25,25,26,27,28,29,30,32,33,34,35,37,38,39,41,42,44,45,47,49,50,52,54,56,58,60,62,64,66,68,70,72,74,77,79,81,84,86,89,91,94,97,99,102,105,108,111,114,117,120,123,126,129,132,135,139,142,145,149,152,156,159,163,166,170,174,177,181,185,189,193,197,201,205,209,213,218,222,226,230],[1,99,109,118,127,136,145,155,164,173,182,191,201,210,219,228,237,246,256,265,274,283,292,302,311,320,329,338,347,357,366,375,384,393,403,412,421,430,439,448,458,467,476,485,494,504,513,522,531,540,549,559,568,577,586,595,605,614,623,632,641,651,660,669,678,687,696,706,715,724,733,742,752,761,770,779,788,797,807,816,825,834,843,853,862,871,880,889,898,908,917,926,935,944,954,963,972,981,990,999],[1,16,17,17,17,17,18,18,19,20,21,22,23,24,25,26,28,29,31,33,35,37,39,41,43,46,48,51,53,56,59,62,65,68,71,75,78,82,85,89,93,97,101,105,110,114,119,123,128,133,137,142,148,153,158,163,169,175,180,186,192,198,204,210,217,223,229,236,243,250,256,263,271,278,285,292,300,308,315,323,331,339,347,355,364,372,381,389,398,407,416,425,434,443,452,462,471,481,491,500],[1,32,33,33,33,34,35,36,37,39,41,43,45,47,50,52,55,58,62,65,69,73,77,81,86,90,95,101,106,111,117,123,129,136,142,149,156,163,170,178,186,194,202,210,219,227,236,246,255,264,274,284,294,305,315,326,337,348,360,371,383,395,407,420,432,445,458,471,484,498,512,526,540,554,569,584,599,614,629,645,661,677,693,710,726,743,760,777,795,812,830,848,866,885,903,922,941,960,980,999],[1,32,33,33,33,34,35,36,37,39,41,43,45,47,50,52,55,58,62,65,69,73,77,81,86,90,95,101,106,111,117,123,129,136,142,149,156,163,170,178,186,194,202,210,219,227,236,246,255,264,274,284,294,305,315,326,337,348,360,371,383,395,407,420,432,445,458,471,484,498,512,526,540,554,569,584,599,614,629,645,661,677,693,710,726,743,760,777,795,812,830,848,866,885,903,922,941,960,980,999]]},
{"id":3,"expParams":[30,20,30,30],"traits":[{"code":23,"dataId":0,"value":1},{"code":22,"dataId":0,"value":0.95},{"code":22,"dataId":1,"value":0.05},{"code":22,"dataId":2,"value":0.04},{"code":41,"dataId":1,"value":0},{"code":51,"dataId":1,"value":0},{"code":52,"dataId":1,"value":0}],"learnings":[],"name":"","note":"","params":[[1,450,500,550,600,650,700,750,800,850,900,950,1000,1050,1100,1150,1200,1250,1300,1350,1400,1450,1500,1550,1600,1650,1700,1750,1800,1850,1900,1950,2000,2050,2100,2150,2200,2250,2300,2350,2400,2450,2500,2550,2600,2650,2700,2750,2800,2850,2900,2950,3000,3050,3100,3150,3200,3250,3300,3350,3400,3450,3500,3550,3600,3650,3700,3750,3800,3850,3900,3950,4000,4050,4100,4150,4200,4250,4300,4350,4400,4450,4500,4550,4600,4650,4700,4750,4800,4850,4900,4950,5000,5050,5100,5150,5200,5250,5300,5350],[0,90,100,110,120,130,140,150,160,170,180,190,200,210,220,230,240,250,260,270,280,290,300,310,320,330,340,350,360,370,380,390,400,410,420,430,440,450,460,470,480,490,500,510,520,530,540,550,560,570,580,590,600,610,620,630,640,650,660,670,680,690,700,710,720,730,740,750,760,770,780,790,800,810,820,830,840,850,860,870,880,890,900,910,920,930,940,950,960,970,980,990,1000,1010,1020,1030,1040,1050,1060,1070],[1,16,18,19,20,21,23,24,25,26,28,29,30,31,33,34,35,36,38,39,40,41,43,44,45,46,48,49,50,51,53,54,55,56,58,59,60,61,63,64,65,66,68,69,70,71,73,74,75,76,77,79,80,81,82,84,85,86,87,89,90,91,92,94,95,96,97,99,100,101,102,104,105,106,107,109,110,111,112,114,115,116,117,119,120,121,122,124,125,126,127,129,130,131,132,134,135,136,137,138],[0,16,18,19,20,21,23,24,25,26,28,29,30,31,33,34,35,36,38,39,40,41,43,44,45,46,48,49,50,51,53,54,55,56,58,59,60,61,63,64,65,66,68,69,70,71,73,74,75,76,77,79,80,81,82,84,85,86,87,89,90,91,92,94,95,96,97,99,100,101,102,104,105,106,107,109,110,111,112,114,115,116,117,119,120,121,122,124,125,126,127,129,130,131,132,134,135,136,137,138],[0,16,18,19,20,21,23,24,25,26,28,29,30,31,33,34,35,36,38,39,40,41,43,44,45,46,48,49,50,51,53,54,55,56,58,59,60,61,63,64,65,66,68,69,70,71,73,74,75,76,77,79,80,81,82,84,85,86,87,89,90,91,92,94,95,96,97,99,100,101,102,104,105,106,107,109,110,111,112,114,115,116,117,119,120,121,122,124,125,126,127,129,130,131,132,134,135,136,137,138],[0,16,18,19,20,21,23,24,25,26,28,29,30,31,33,34,35,36,38,39,40,41,43,44,45,46,48,49,50,51,53,54,55,56,58,59,60,61,63,64,65,66,68,69,70,71,73,74,75,76,77,79,80,81,82,84,85,86,87,89,90,91,92,94,95,96,97,99,100,101,102,104,105,106,107,109,110,111,112,114,115,116,117,119,120,121,122,124,125,126,127,129,130,131,132,134,135,136,137,138],[0,32,35,37,40,42,45,47,50,52,55,57,60,62,65,67,70,72,75,77,80,82,85,87,90,92,95,97,100,102,105,107,110,112,115,117,120,122,125,127,130,132,135,137,140,142,145,147,150,152,155,157,160,162,165,167,170,172,175,177,180,182,185,187,190,192,195,197,200,202,205,207,210,212,215,217,220,222,225,227,230,232,235,237,240,242,245,247,250,252,255,257,260,262,265,267,270,272,275,277],[0,32,35,37,40,42,45,47,50,52,55,57,60,62,65,67,70,72,75,77,80,82,85,87,90,92,95,97,100,102,105,107,110,112,115,117,120,122,125,127,130,132,135,137,140,142,145,147,150,152,155,157,160,162,165,167,170,172,175,177,180,182,185,187,190,192,195,197,200,202,205,207,210,212,215,217,220,222,225,227,230,232,235,237,240,242,245,247,250,252,255,257,260,262,265,267,270,272,275,277]]},
{"id":4,"expParams":[30,20,30,30],"traits":[{"code":23,"dataId":0,"value":1},{"code":22,"dataId":0,"value":0.95},{"code":22,"dataId":1,"value":0.05},{"code":22,"dataId":2,"value":0.04},{"code":41,"dataId":1,"value":0},{"code":51,"dataId":1,"value":0},{"code":52,"dataId":1,"value":0}],"learnings":[],"name":"","note":"","params":[[1,450,500,550,600,650,700,750,800,850,900,950,1000,1050,1100,1150,1200,1250,1300,1350,1400,1450,1500,1550,1600,1650,1700,1750,1800,1850,1900,1950,2000,2050,2100,2150,2200,2250,2300,2350,2400,2450,2500,2550,2600,2650,2700,2750,2800,2850,2900,2950,3000,3050,3100,3150,3200,3250,3300,3350,3400,3450,3500,3550,3600,3650,3700,3750,3800,3850,3900,3950,4000,4050,4100,4150,4200,4250,4300,4350,4400,4450,4500,4550,4600,4650,4700,4750,4800,4850,4900,4950,5000,5050,5100,5150,5200,5250,5300,5350],[0,90,100,110,120,130,140,150,160,170,180,190,200,210,220,230,240,250,260,270,280,290,300,310,320,330,340,350,360,370,380,390,400,410,420,430,440,450,460,470,480,490,500,510,520,530,540,550,560,570,580,590,600,610,620,630,640,650,660,670,680,690,700,710,720,730,740,750,760,770,780,790,800,810,820,830,840,850,860,870,880,890,900,910,920,930,940,950,960,970,980,990,1000,1010,1020,1030,1040,1050,1060,1070],[1,16,18,19,20,21,23,24,25,26,28,29,30,31,33,34,35,36,38,39,40,41,43,44,45,46,48,49,50,51,53,54,55,56,58,59,60,61,63,64,65,66,68,69,70,71,73,74,75,76,77,79,80,81,82,84,85,86,87,89,90,91,92,94,95,96,97,99,100,101,102,104,105,106,107,109,110,111,112,114,115,116,117,119,120,121,122,124,125,126,127,129,130,131,132,134,135,136,137,138],[0,16,18,19,20,21,23,24,25,26,28,29,30,31,33,34,35,36,38,39,40,41,43,44,45,46,48,49,50,51,53,54,55,56,58,59,60,61,63,64,65,66,68,69,70,71,73,74,75,76,77,79,80,81,82,84,85,86,87,89,90,91,92,94,95,96,97,99,100,101,102,104,105,106,107,109,110,111,112,114,115,116,117,119,120,121,122,124,125,126,127,129,130,131,132,134,135,136,137,138],[0,16,18,19,20,21,23,24,25,26,28,29,30,31,33,34,35,36,38,39,40,41,43,44,45,46,48,49,50,51,53,54,55,56,58,59,60,61,63,64,65,66,68,69,70,71,73,74,75,76,77,79,80,81,82,84,85,86,87,89,90,91,92,94,95,96,97,99,100,101,102,104,105,106,107,109,110,111,112,114,115,116,117,119,120,121,122,124,125,126,127,129,130,131,132,134,135,136,137,138],[0,16,18,19,20,21,23,24,25,26,28,29,30,31,33,34,35,36,38,39,40,41,43,44,45,46,48,49,50,51,53,54,55,56,58,59,60,61,63,64,65,66,68,69,70,71,73,74,75,76,77,79,80,81,82,84,85,86,87,89,90,91,92,94,95,96,97,99,100,101,102,104,105,106,107,109,110,111,112,114,115,116,117,119,120,121,122,124,125,126,127,129,130,131,132,134,135,136,137,138],[0,32,35,37,40,42,45,47,50,52,55,57,60,62,65,67,70,72,75,77,80,82,85,87,90,92,95,97,100,102,105,107,110,112,115,117,120,122,125,127,130,132,135,137,140,142,145,147,150,152,155,157,160,162,165,167,170,172,175,177,180,182,185,187,190,192,195,197,200,202,205,207,210,212,215,217,220,222,225,227,230,232,235,237,240,242,245,247,250,252,255,257,260,262,265,267,270,272,275,277],[0,32,35,37,40,42,45,47,50,52,55,57,60,62,65,67,70,72,75,77,80,82,85,87,90,92,95,97,100,102,105,107,110,112,115,117,120,122,125,127,130,132,135,137,140,142,145,147,150,152,155,157,160,162,165,167,170,172,175,177,180,182,185,187,190,192,195,197,200,202,205,207,210,212,215,217,220,222,225,227,230,232,235,237,240,242,245,247,250,252,255,257,260,262,265,267,270,272,275,277]]}
]