{
"autoplayBgm":true,"autoplayBgs":false,"battleback1Name":"Cobblestones4","battleback2Name":"Bridge","bgm":{"name":"Ship3","pan":0,"pitch":100,"volume":90},"bgs":{"name":"","pan":0,"pitch":100,"volume":90},"disableDashing":false,"displayName":"","encounterList":[],"encounterStep":30,"height":20,"note":"","parallaxLoopX":false,"parallaxLoopY":false,"parallaxName":"","parallaxShow":true,"parallaxSx":0,"parallaxSy":0,"scrollType":0,"specifyBattleback":false,"tilesetId":2,"width":50,
"data":[2048,2048,2048,2048,2048,2048,2048,2048,2048,2048,2048,2048,2048,2048,2048,2048,2048,2048,2048,2048,2048,2048,2048,2048,2048,2048,2048,2048,2048,2048,2048,2048,2048,2048,2048,2048,2048,2048,2048,2048,2048,2048,2048,2048,2048,2048,2048,2048,2048,2048,2048,2048,2048,2048,2048,2048,2048,2048,2048,2048,2048,2048,2048,2048,2048,2048,2048,2048,2048,2048,2048,2048,2048,2048,2048,2048,2048,2048,2048,2048,2048,2048,2048,2048,2048,2048,2048,2048,2048,2048,2048,2048,2048,2048,2048,2048,2048,2048,2048,2048,2048,2048,2048,2048,2048,2048,2048,2048,2048,2048,2048,2048,2048,2048,2048,2048,2048,2048,2048,2048,2048,2048,2048,2048,2048,2048,2048,2048,2048,2048,2048,2048,2048,2048,2048,2048,2048,2048,2048,2048,2048,2048,2048,2048,2048,2048,2048,2048,2048,2048,2048,2048,2048,2048,2048,2048,2048,2048,2048,2048,2048,2048,2048,2048,2048,2048,2048,2048,2048,2048,2048,2048,2048,2048,2048,2048,2048,2048,2048,2048,2048,2048,2048,2048,2048,2048,2048,2048,2048,2048,2048,2048,2048,2048,2048,2048,2048,2048,2048,2048,2048,2048,2048,2048,2048,2048,2048,2048,2048,2048,2048,2048,2048,2048,2048,2048,2048,2048,2048,2048,2048,2048,2048,2048,2048,2048,2048,2048,2048,2048,2048,2048,2048,2048,2048,2048,2048,2048,2048,2048,2048,2048,2048,2048,2048,2048,2048,2048,2048,2048,2048,2048,2048,2048,2048,2048,2048,2048,2048,2048,2048,2048,2048,2048,2048,2048,2048,2048,2048,2048,2048,2048,2048,2048,2048,2048,2048,2048,2048,2048,2048,2048,2048,2048,2048,2048,2048,2048,2048,2048,2048,2048,2048,2048,2048,2048,2048,2048,2048,2048,2048,2048,2048,2048,2048,2048,2048,2048,2048,2048,2048,2048,2048,2048,2048,2048,2048,2048,2048,2048,2048,2048,2048,2048,2048,2048,2048,2048,2048,2048,2048,2048,2048,2048,2048,2048,2048,2048,2048,2048,2048,2048,2048,2048,2048,2048,2048,2048,2048,2048,2048,2048,2048,2048,2048,2048,2048,2048,2048,2048,2048,2048,2048,2048,2048,2048,2048,2048,2048,2048,2048,2048,2048,2048,2048,2048,2048,2048,2048,2048,2048,2048,2048,2048,2048,2048,2048,2048,2048,2048,2048,2048,2048,2048,2048,2048,2048,2048,2048,2048,2048,2048,2048,2048,2048,2048,2048,2048,2048,2048,2048,2048,2048,2048,2048,2048,2048,2048,2048,2048,2048,2048,2048,2048,2048,2048,2048,2048,2048,2048,2048,2048,2048,2048,2048,2048,2048,2048,2048,2048,2048,2048,2048,2048,2048,2048,2048,2048,2048,2048,2048,2048,2048,2048,2048,2048,2048,2048,2048,2048,2048,2048,2048,2048,2048,2048,2048,2048,2048,2048,2048,2048,2048,2048,2048,2048,2048,2048,2048,2048,2048,2048,2048,2048,2048,2048,2048,2048,2048,2048,2048,2048,2048,2048,2048,2048,2048,2048,2048,2048,2048,2048,2048,2048,2048,2048,2048,2048,2048,2048,2048,2048,2048,2048,2048,2048,2048,2048,2048,2048,2048,2048,2048,2048,2048,2048,2048,2048,2048,2048,2048,2048,2048,2048,2048,2048,2048,2048,2048,2048,2048,2048,2048,2048,2048,2048,2048,2048,2048,2048,2048,2048,2048,2048,2048,2048,2048,2048,2048,2048,2048,2048,2048,2048,2048,2048,2048,2048,2048,2048,2048,2048,2048,2048,2048,2048,2048,2048,2048,2048,2048,2048,2048,2048,2048,2048,2048,2048,2048,2048,2048,2048,2048,2048,2048,2048,2048,2048,2048,2048,2048,2048,2048,2048,2048,2048,2048,2048,2048,2048,2048,2048,2048,2048,2048,2048,2048,2048,2048,2048,2048,2048,2048,2048,2048,2048,2048,2048,2048,2048,2048,2048,2048,2048,2048,2048,2048,2048,2048,2048,2048,2048,2048,2048,2048,2048,2048,2048,2048,2048,2048,2048,2048,2048,2048,2048,2048,2048,2048,2048,2048,2048,2048,2048,2048,2048,2048,2048,2048,2048,2048,2048,2048,2048,2048,2048,2048,2048,2048,2048,2048,2048,2048,2048,2048,2048,2048,2048,2048,2048,2048,2048,2048,2048,2048,2048,2048,2048,2048,2048,2048,2048,2048,2048,2048,2048,2048,2048,2048,2048,2048,2048,2048,2048,2048,2048,2048,2048,2048,2048,2048,2048,2048,2048,2048,2048,2048,2048,2048,2048,2048,2048,2048,2048,2048,2048,2048,2048,2048,2048,2048,2048,2048,2048,2048,2048,2048,2048,2048,2048,2048,2048,2048,2048,2048,2048,2048,2048,2048,2048,2048,2048,2048,2048,2048,2048,2048,2048,2048,2048,2048,2048,2048,2048,2048,2048,2048,2048,2048,2048,2048,2048,2048,2048,2048,2048,2048,2048,2048,2048,2048,2048,2048,2048,2048,2048,2048,2048,2048,2048,2048,2048,2048,2048,2048,2048,2048,2048,2048,2048,2048,2048,2048,2048,2048,2048,2048,2048,2048,2048,2048,2048,2048,2048,2048,2048,2048,2048,2048,2048,2048,2048,2048,2048,2048,2048,2048,2048,2048,2048,2048,2048,2048,2048,2048,2048,2048,2048,2048,2048,2048,2048,2048,2048,2048,2048,2048,2048,2048,2048,2048,2048,2048,2048,2048,2048,2048,2048,2048,2048,2048,2048,2048,2048,2048,2048,2048,2048,2048,2048,2048,2048,2048,2048,2048,2048,2048,2048,2048,2048,2048,2048,2048,2048,2048,2048,2048,2048,2048,2048,2048,2048,2048,2048,2048,2048,2048,2048,2048,2048,2048,2048,2048,2048,2048,2048,2048,2048,2048,2048,2048,2048,2048,2048,2048,2048,2048,2048,2048,2048,2048,2048,2048,2048,2048,2048,2048,2048,2048,2048,2048,2048,2048,2048,2048,2048,2048,2048,2048,2048,2048,2048,2048,2048,2048,2048,2048,2048,2048,2048,2048,2048,2048,2048,2048,2048,2048,2048,2048,2048,2048,2048,2048,2048,2048,2048,2048,2048,2048,2048,2048,2048,2048,2048,2048,2048,2048,2048,2048,2048,2048,2048,2048,2048,2048,2048,2048,2048,2048,2048,2096,2096,2096,2096,2096,2096,2096,2096,2096,2096,2096,2096,2096,2096,2096,2096,2096,2096,2096,2096,2096,2096,2096,2096,2096,2096,2096,2096,2096,2096,2096,2096,2096,2096,2096,2096,2096,2096,2096,2096,2096,2096,2096,2096,2096,2096,2096,2096,2096,2096,2096,2096,2096,2096,2096,2096,2096,2096,2096,2096,2096,2096,2096,2096,2096,2096,2096,2096,2096,2096,2096,2096,2096,2096,2096,2096,2096,2096,2096,2096,2096,2096,2096,2096,2096,2096,2096,2096,2096,2096,2096,2096,2096,2096,2096,2096,2096,2096,2096,2096,2096,2096,2096,2096,2096,2096,2096,2096,2096,2096,2096,2096,2096,2096,2096,2096,2096,2096,2096,2096,2096,2096,2096,2096,2096,2096,2096,2096,2096,2096,2096,2096,2096,2096,2096,2096,2096,2096,2096,2096,2096,2096,2096,2096,2096,2096,2096,2096,2096,2096,2096,2096,2096,2096,2096,2096,2096,2096,2096,2096,2096,2096,2096,2096,2096,2096,2096,2096,2096,2096,2096,2096,2096,2096,2096,2096,2096,2096,2096,2096,2096,2096,2096,2096,2096,2096,2096,2096,2096,2096,2096,2096,2096,2096,2096,2096,2096,2096,2096,2096,2096,2096,2096,2096,2096,2096,2096,2096,2096,2096,2096,2096,2096,2096,2096,2096,2096,2096,2096,2096,2096,2096,2096,2096,2096,2096,2096,2096,2096,2096,2096,2096,2096,2096,2096,2096,2096,2096,2096,2096,2096,2096,2096,2096,2096,2096,2096,2096,2096,2096,2096,2096,2096,2096,2096,2096,2096,2096,2096,2096,2096,2096,2096,2096,2096,2096,2096,2096,2096,2096,2096,2096,2096,2096,2096,2096,2096,2096,2096,2096,2096,2096,2096,2096,2096,2096,2096,2096,2096,2096,2096,2096,2096,2096,2096,2096,2096,2096,2096,2096,2096,2096,2096,2096,2096,2096,2096,2096,2096,2096,2096,2096,2096,2096,2096,2096,2096,2096,2096,2096,2096,2096,2096,2096,2096,2096,2096,2096,2096,2096,2096,2096,2096,2096,2096,2096,2096,2096,2096,2096,2096,2096,2096,2096,2096,2096,2096,2096,2096,2096,2096,2096,2096,2096,2096,2096,2096,2096,2096,2096,2096,2096,2096,2096,2096,2096,2096,2096,2096,2096,2096,2096,2096,2096,2096,2096,2096,2096,2096,2096,2096,2096,2096,2096,2096,2096,2096,2096,2096,2096,2096,2096,2096,2096,2096,2096,2096,2096,2096,2096,2096,2096,2096,2096,2096,2096,2096,2096,2096,2096,2096,2096,2096,2096,2096,2096,2096,2096,2096,2096,2096,2096,2096,2096,2096,2096,2096,2096,2096,2096,2096,2096,2096,2096,2096,2096,2096,2096,2096,2096,2096,2096,2096,2096,2096,2096,2096,2096,2096,2096,2096,2096,2096,2096,2096,2096,2096,2096,2096,2096,2096,2096,2096,2096,2096,2096,2096,2096,2096,2096,2096,2096,2096,2096,2096,2096,2096,2096,2096,2096,2096,2096,2096,2096,2096,2096,2096,2096,2096,2096,2096,2096,2096,2096,2096,2096,2096,2096,2096,2096,2096,2096,2096,2096,2096,2096,2096,2096,2096,2096,2096,2096,2096,2096,2096,2096,2096,2096,2096,2096,2096,2096,2096,2096,2096,2096,2096,2096,2096,2096,2096,2096,2096,2096,2096,2096,2096,2096,2096,2096,2096,2096,2096,2096,2096,2096,2096,2096,2096,2096,2096,2096,2096,2096,2096,2096,2096,2096,2096,2096,2096,2096,2096,2096,2096,2096,2096,2096,2096,2096,2096,2096,2096,2096,2096,2096,2096,2096,2096,2096,2096,2096,2096,2096,2096,2096,2096,2096,2096,2096,2096,2096,2096,2096,2096,2096,2096,2096,2096,2096,2096,2096,2096,2096,2096,2096,2096,2096,2096,2096,2096,2096,2096,2096,2096,2096,2096,2096,2096,2096,2096,2096,2096,2096,2096,2096,2096,2096,2096,2096,2096,2096,2096,2096,2096,2096,2096,2096,2096,2096,2096,2096,2096,2096,2096,2096,2096,2096,2096,2096,2096,2096,2096,2096,2096,2096,2096,2096,2096,2096,2096,2096,2096,2096,2096,2096,2096,2096,2096,2096,2096,2096,2096,2096,2096,2096,2096,2096,2096,2096,2096,2096,2096,2096,2096,2096,2096,2096,2096,2096,2096,2096,2096,2096,2096,2096,2096,2096,2096,2096,2096,2096,2096,2096,2096,2096,2096,2096,2096,2096,2096,2096,2096,2096,2096,2096,2096,2096,2096,2096,2096,2096,2096,2096,2096,2096,2096,2096,2096,2096,2096,2096,2096,2096,2096,2096,2096,2096,2096,2096,2096,2096,2096,2096,2096,2096,2096,2096,2096,2096,2096,2096,2096,2096,2096,2096,2096,2096,2096,2096,2096,2096,2096,2096,2096,2096,2096,2096,2096,2096,2096,2096,2096,2096,2096,2096,2096,2096,2096,2096,2096,2096,2096,2096,2096,2096,2096,2096,2096,2096,2096,2096,2096,2096,2096,2096,2096,2096,2096,2096,2096,2096,2096,2096,2096,2096,2096,2096,2096,2096,2096,2096,2096,2096,2096,2096,2096,2096,2096,2096,2096,2096,2096,2096,2096,2096,2096,2096,2096,2096,2096,2096,2096,2096,2096,2096,2096,2096,2096,2096,2096,2096,2096,2096,2096,2096,2096,2096,2096,2096,2096,2096,2096,2096,2096,2096,2096,2096,2096,2096,2096,2096,2096,2096,2096,2096,2096,2096,2096,2096,2096,2096,2096,2096,2096,2096,2096,2096,2096,2096,2096,2096,2096,2096,2096,2096,2096,2096,2096,2096,2096,2096,2096,2096,2096,2096,2096,2096,2096,2096,2096,2096,2096,2096,2096,2096,2096,2096,2096,2096,2096,2096,2096,2096,2096,2096,2096,2096,2096,2096,2096,2096,2096,2096,2096,2096,2096,2096,2096,2096,2096,2096,2096,2096,2096,2096,2096,2096,2096,2096,2096,2096,2096,2096,2096,2096,2096,2096,2096,2096,2096,2096,2096,2096,2096,2096,2096,2096,2096,2096,2096,2096,2096,2096,2096,2096,2096,2096,2096,2096,2096,2096,2096,2096,2096,2096,2096,2096,2096,2096,2096,2096,2096,2096,2096,2096,2096,2096,2096,2096,2096,2096,2096,2096,2096,2096,2096,2096,2096,2096,0,0,0,0,0,0,0,0,0,0,0,0,0,0,0,0,0,0,0,0,0,0,0,0,0,0,0,0,0,0,0,0,0,0,0,0,0,0,0,0,0,0,0,0,0,0,0,0,0,0,0,0,0,0,0,0,0,0,0,0,0,0,0,0,0,0,0,0,0,0,0,0,0,0,0,0,0,0,0,0,0,0,0,0,0,0,0,0,0,0,0,0,0,0,0,0,0,0,0,0,0,0,0,0,0,0,0,0,0,0,0,0,0,0,0,0,0,0,0,0,0,0,0,0,0,0,0,0,0,0,0,0,0,0,0,0,0,0,0,0,0,0,0,0,0,0,0,0,0,0,19,19,19,19,19,19,0,0,0,0,0,0,0,0,0,0,0,0,0,0,0,0,0,0,0,0,0,0,0,0,0,0,0,0,0,0,0,0,0,0,0,0,0,0,0,0,0,0,0,0,0,0,0,0,0,0,0,0,0,0,0,0,0,0,0,0,0,0,0,0,0,0,0,0,0,0,0,0,0,0,0,0,0,0,0,0,0,0,0,0,0,0,0,0,0,0,0,0,0,0,0,0,0,0,0,0,0,0,0,0,0,0,0,0,0,0,0,0,0,0,0,0,0,0,0,0,0,0,0,0,0,0,0,0,0,0,0,0,0,0,0,0,0,0,0,0,0,0,0,0,0,0,0,0,0,0,0,0,0,0,0,0,0,0,0,0,0,0,0,0,0,0,0,0,0,0,0,0,0,0,0,0,0,0,0,0,0,0,0,0,0,0,0,0,0,0,0,0,0,0,0,0,0,0,0,0,0,0,0,0,0,0,0,0,0,0,0,0,0,0,0,0,0,0,0,0,0,0,0,0,0,0,0,0,0,0,0,0,0,0,0,0,0,0,0,0,0,0,0,0,0,0,0,0,0,0,0,0,0,0,0,0,0,0,0,0,0,0,0,0,0,0,0,0,0,0,0,0,0,0,0,0,0,0,0,0,0,0,0,0,0,0,0,0,0,0,0,0,0,0,0,0,0,0,0,0,0,0,0,0,0,0,0,0,0,0,0,0,0,0,0,0,0,0,0,0,0,0,0,0,0,0,0,0,0,0,0,0,0,0,0,0,0,0,0,0,0,0,0,0,0,0,0,0,0,0,0,0,0,0,0,0,0,0,0,0,0,0,0,0,0,0,0,0,0,0,0,0,0,0,0,0,0,0,0,0,0,0,0,0,0,0,0,0,0,0,0,0,0,0,0,0,0,0,0,0,0,0,0,0,0,0,0,0,0,0,0,0,0,0,0,0,0,0,0,0,0,0,0,0,0,0,0,0,0,0,0,0,0,0,0,0,0,0,0,0,0,0,0,0,0,0,0,0,0,0,0,0,0,0,0,0,0,0,0,0,0,0,0,0,0,0,0,0,0,0,0,0,0,0,0,0,0,0,0,0,0,0,0,0,0,0,0,0,0,0,0,0,0,0,0,0,0,0,0,0,0,0,0,0,0,0,0,0,0,0,0,0,0,0,0,0,0,0,0,0,0,0,0,0,0,0,0,0,0,0,0,0,0,0,0,0,0,0,0,0,0,0,0,0,0,0,0,0,0,0,0,0,0,0,0,0,0,0,0,0,0,0,0,0,0,0,0,0,0,0,0,0,0,0,0,0,0,0,0,0,0,0,0,0,0,0,0,0,0,0,0,0,0,0,0,0,0,0,0,0,0,0,0,0,0,0,0,0,0,0,0,0,0,0,0,0,0,0,0,0,0,0,0,0,0,0,0,0,0,0,0,0,0,0,0,0,0,30,0,0,0,0,0,0,0,0,0,0,0,0,0,0,0,0,0,0,0,0,0,0,0,0,0,0,0,0,0,0,0,0,0,0,0,0,0,0,0,0,0,0,0,0,0,0,0,0,0,0,0,0,0,0,0,0,0,0,0,0,0,0,0,0,0,0,0,0,0,0,0,0,0,0,0,0,0,0,0,0,0,0,0,0,0,0,0,0,0,0,0,0,0,0,0,0,0,0,0,0,0,0,0,0,0,0,0,0,0,0,0,0,0,0,0,0,0,0,0,0,0,0,0,0,0,0,0,0,0,0,0,0,0,0,0,0,0,0,0,0,0,0,0,0,0,0,0,0,0,0,0,0,0,0,0,0,0,0,0,0,0,0,0,0,0,0,0,0,0,0,0,0,0,0,0,0,0,0,0,0,0,0,0,0,0,0,0,0,0,0,0,0,0,0,0,0,0,0,0,0,0,0,0,0,0,0,0,0,0,0,0,0,0,0,0,0,0,0,0,0,0,0,0,0,0,0,0,0,0,0,0,0,0,0,0,0,0,0,0,0,0,0,0,0,0,0,0,0,0,0,0,0,0,0,0,0,0,0,0,0,0,0,0,0,0,0,0,0,0,0,0,0,0,0,0,0,0,0,0,0,0,0,0,0,0,0,0,0,0,0,0,0,0,0,0,0,0,0,0,0,0,0,0,0,0,0,0,0,0,0,0,0,0,0,0,0,0,0,0,0,0,0,0,0,0,0,0,0,0,0,0,0,0,0,0,0,0,0,0,0,0,0,0,0,0,0,0,0,0,0,0,0,0,0,0,0,21,21,21,21,21,21,0,0,0,0,0,0,0,0,0,0,0,0,0,0,0,0,0,0,0,0,0,0,0,0,0,0,0,0,0,0,0,0,0,0,0,0,0,0,0,0,0,0,0,0,30,30,30,30,30,31,0,0,0,0,0,0,0,0,0,0,0,0,0,0,0,0,0,0,0,0,0,0,0,0,0,0,0,0,0,0,0,0,0,0,0,0,0,0,0,0,0,0,0,0,0,0,0,0,0,0,0,0,0,0,0,0,0,0,0,0,0,0,0,0,0,0,0,0,0,0,0,0,0,0,0,0,0,0,0,0,0,0,0,0,0,0,0,0,0,0,0,0,0,0,0,0,0,0,0,0,0,0,0,0,0,0,0,0,0,0,0,0,0,0,0,0,0,0,0,0,0,0,0,0,0,0,0,0,0,0,0,0,0,0,0,0,0,0,0,0,0,0,0,0,0,0,0,0,0,0,0,0,0,0,0,0,0,0,0,0,0,0,0,0,0,0,0,0,0,0,0,0,0,0,0,0,0,0,0,0,0,0,0,0,0,0,0,0,0,0,0,0,0,0,0,0,0,0,0,0,0,0,0,0,0,0,0,0,0,0,0,0,0,0,0,0,0,0,0,0,0,0,0,0,0,0,0,0,0,0,0,0,0,0,0,0,0,0,0,0,0,0,0,0,0,0,0,0,0,0,0,0,0,0,0,0,0,0,0,0,0,0,0,0,0,0,0,0,0,0,0,0,0,0,0,0,0,0,0,0,0,0,0,0,0,0,0,0,0,0,0,0,0,0,0,0,0,0,0,0,0,0,0,0,0,0,0,0,0,0,0,0,0,0,0,0,0,0,0,0,0,0,0,0,0,0,0,0,0,0,0,0,0,0,0,0,0,0,0,0,0,0,0,0,0,0,0,0,0,0,0,0,0,0,0,0,0,0,0,0,0,0,0,0,0,0,0,0,0,0,0,0,0,0,0,0,0,0,0,0,0,0,0,0,0,0,0,0,0,0,0,0,0,0,0,0,0,0,0,0,0,0,0,0,0,0,0,0,0,0,0,0,0,0,0,0,0,0,0,0,0,0,0,0,0,0,0,0,0,0,0,0,0,0,0,0,0,0,0,0,0,0,0,0,0,0,0,0,0,0,0,0,0,0,0,0,0,0,0,0,0,0,0,0,0,0,0,0,0,0,0,0,0,0,0,0,0,0,0,0,0,0,0,0,0,0,0,0,0,0,0,0,0,0,0,0,0,0,0,0,0,0,0,0,0,0,0,0,0,0,0,0,0,0,0,0,0,0,0,0,0,0,0,0,0,0,0,0,0,0,0,0,0,0,0,0,0,21,21,21,21,21,21,21,21,21,21,21,21,21,0,0,0,0,0,0,0,0,0,0,0,0,0,0,0,0,0,0,0,0,0,0,0,0,0,0,0,0,0,0,0,0,0,0,0,0,0,29,30,30,30,30,30,30,30,30,30,30,30,31,0,0,0,0,0,0,0,0,0,0,0,0,0,0,0,0,0,0,0,0,0,0,0,0,0,0,0,0,0,0,0,0,0,0,0,0,0,0,0,0,0,0,0,0,0,0,0,0,0,0,0,0,0,0,0,0,0,0,0,0,0,0,0,0,0,0,0,0,0,0,0,0,0,0,0,0,0,0,0,0,0,0,0,0,0,0,0,0,0,0,0,0,0,0,0,0,0,0,0,0,0,0,0,0,0,0,0,0,0,0,0,0,0,0,0,0,0,0,0,0,0,0,0,0,0,0,0,0,0,0,0,0,0,0,0,0,0,0,0,0,0,0,0,0,0,0,0,0,0,0,0,0,0,0,0,0,0,0,0,0,0,0,0,0,0,0,0,0,0,0,0,0,0,0,0,0,0,0,0,0,0,0,0,0,0,0,0,0,0,0,0,0,0,0,0,0,0,0,0,0,0,0,0,0,0,0,0,0,0,0,0,0,0,0,0,0,0,0,0,0,0,0,0,0,0,0,0,0,0,0,0,0,0,0,0,0,0,0,0,0,0,0,0,0,0,0,0,0,0,0,0,0,0,0,0,0,0,0,0,0,0,0,0,0,0,0,0,0,0,0,0,0,0,0,0,0,0,0,0,0,0,0,0,0,0,0,0,0,0,0,0,0,0,0,0,0,0,0,0,0,0,0,0,0,0,0,0,0,0,0,0,0,0,0,0,0,0,0,0,0,0,0,0,0,0,0,0,0,0,0,0,0,0,0,0,0,0,0,0,0,0,0,0,0,0,0,0,0,0,0,0,0,0,0,0,0,0,0,0,0,0,0,0,0,0,0,0,0,0,0,0,0,0,0,0,0,0,0,0,0,0,0,0,0,0,0,0,0,0,0,0,0,0,0,0,0,0,0,0,0,0,0,0,0,0,0,0,0,0,0,0,0,0,0,0,0,0,0,0,0,0,0,0,0,0,0,0,0,0,0,0,0,0,0,0,0,0,0,0,0,0,0,0,0,0,0,0,0,0,0,0,0,0,0,0,0,0,0,0,0,0,0,0,0,0,0,0,0,0,0,0,0,0,0,0,0,0,0,0,0,0,0,0,0,0,0,0,0,0,0,0,0,0,0,0,0,0,0,0,0,0,0,0,0,0,0,0,0,0,0,0,0,0,0,0,0,0,0,0,0,0,0,0,0,0,0,0,0,0,0,0,0,0,0,0,0,0,0,0,0,0,0,0,0,0,0,0,0,0,0,0,0,0,0,0,0,0,0,0,0,0,0,0,0,0,0,0,0,0,0,0,0,0,0,0,0,0,0,0,0,0,0,0,0,0,0,0,0,0,0,0,0,0,0,0,0,0,0,0,0,0,0,0,0,0,0,0,0,0,0,0,0,0,0,0,0,0,0,0,0,0,0,0,0,0,0,0,0,0,0,0,0,0,0,0,0,0,0,0,0,0,0,0,0,0,0,0,0,0,0,0,0,0,0,0,0,0,0,0,0,0,0,0,0,0,0,0,0,0,0,0,0,0,0,0,0,0,0,0,0,0,0,0,0,0,0,0,0,0,0,0,0,0,0,0,0,0,0,0,0,0,0,0,0,0,0,0,0,0,0,0,0,0,0,0,0,0,0,0,0,0,0,0,0,0,0,0,0,0,0,0,0,0,0,0,0,0,0,0,0,0,0,0,0,0,0,0,0,0,0,0,0,0,0,0,0,0,0,0,0,0,0,0,0,0,0,0,0,0,0,0,0,0,0,0,0,0,0,0,0,0,0,0,0,0,0,0,0,0,0,0,0,0,0,0,0,0,0,0,0,0,0,0,0,0,0,0,0,0,0,0,0,0,0,0,0,0,0,0,0,0,0,0,0,0,0,0,0,0,0,0,0,0,0,0,0,0,0,0,0,0,0,0,0,0,0,0,0,0,0,0,0,0,0,0,0,0,0,0,0,0,0,0,0,0,0,0,0,0,0,0,0,0,0,0,0,0,0,0,0,0,0,0,0,0,0,0,0,0,0,0,0,0,0,0,0,0,0,0,0,0,0,0,0,0,0,0,0,0,0,0,0,0,0,0,0,0,0,0,0,0,0,0,0,0,0,0,0,0,0,0,0,0,0,0,0,0,0,0,0,0,0,0,0,0,0,0,0,0,0,0,0,0,0,0,0,0,0,0,0,0,0,0,0,0,0,0,0,0,0,0,0,0,0,0,0,0,0,0,0,0,0,0,0,0,0,0,0,0,0,0,0,0,0,0,0,0,0,0,0,0,0,0,0,0,0,0,0,0,0,0,0,0,0,0,0,0,0,0,0,0,0,0,0,0,0,0,0,0,0,0,0,0,0,0,0,0,0,0,0,0,0,0,0,0,0,0,0,0,0,0,0,0,0,0,0,0,0,0,0,0,0,0,0,0,0,0,0,0,0,0,0,0,0,0,0,0,0,0,0,0,0,0,0,0,0,0,0,0,0,0,0,0,0,0,0,0,0,0,0,0,0,0,0,0,0,0,0,0,0,0,0,0,0,0,0,0,0,0,0,0,0,0,0,0,0,0,0,0,0,0,0,0,0,0,0,0,0,0,0,0,0,0,0,0,0,0,0,0,0,0,0,0,0,0,0,0,0,0,0,0,0,0,0,0,0,0,0,0,0,0,0,0,0,0,0,0,0,0,0,0,0,0,0,0,0,0,0,0,0,0,0,0,0,0,0,0,0,0,0,0,0,0,0,0,0,0,0,0,0,0,0,0,0,0,0,0,0,0,0,0,0,0,0,0,0,0,0,0,0,0,0,0,0,0,0,0,0,0,0,0,0,0,0,0,0,0,0,0,0,0,0,0,0,0,0,0,0,0,0,0,0,0,0,0,0,0,0,0,0,0,0,0,0,0,0,0,0,0,0,0,0,0,0,0,0,0,0,0,0,0,0,0,0,0,0,0,0,0,0,0,0,0,0,0,0,0,0,0,0,0,0,0,0,0,0,0,0,0,0,0,0,0,0,0,0,0,0,0,0,0,0,0,0,0,0,0,0,0,0,0,0,0,0,0,0,0,0,0,0,0,0,0,0,0,0,0,0,0,0,0,0,0,0,0,0,0,0,0,0,0,0,0,0,0,0,0,0,0,0,0,0,0,0,0,0,0,0,0,0,0,0,0,0,0,0,0,0,0,0,0,0,0,0,0,0,0,0,0,0,0,0,0,0,0,0,0,0,0,0,0,0,0,0,0,0,0,0,0,0,0,0,0,0,0,0,0,0,0,0,0,0,0,0,0,0,0,0,0,0,0,0,0,0,0,0,0,0,0,0,0,0,0,0,0,0,0,0,0,0,0,0,0,0,0,0,0,0,0,0,0,0,0,0,0,0,0,0,0,0,0,0,0,0,0,0,0,0,0,0,0,0,0,0,0,0,0,0,0,0,0,0,0,0,0,0,0,0,0,0,0,0,0,0,0,0,0,0,0,0,0,0,0,0,0,0,0,0,0,0,0,0,0,0,0,0,0,0,0,0,0,0,0,0,0,0,0,0,0,0,0,0,0,0,0,0,0,0,0,0,0,0,0,0,0,0,0,0,0,0,0,0,0,0,0,0,0,0,0,0,0,0,0,0,0,0,0,0,0,0,0,0,0,0,0,0,0,0,0,0,0,0,0,0,0,0,0,0,0,0,0,0,0,0,0,0,0,0,0,0,0,0,0,0,0,0,0,0,0,0,0,0,0,0,0,0,0,0,0,0,0,0,0,0,0,0,0,0,0,0,0,0,0,0,0,0,0,0,0,0,0,0,0,0,0,0,0,0,0,0,0,0,0,0,0,0,0,0,0,0,0,0,0,0,0,0,0,0,0,0,0,0,0,0,0,0,0,0,0,0,0,0,0,0,0,0,0,0,0,0,0,0,0,0,0,0,0,0,0,0,0,0,0,0,0,0,0,0,0,0,0,0,0,0,0,0,0,0,0,0,0,0,0,0,0,0,0,0,0,0,0,0,0,0,0,0,0,0,0,0,0,0,0,0,0,0,0,0,0,0,0,0,0,0,0,0,0,0,0,0,0,0,0,0,0,0,0,0,0,0,0,0,0,0,0,0,0,0,0,0,0,0,0,0,0,0,0,0,0,0,0,0,0,0,0,0,0,0,0,0,0,0,0,0,0,0,0,0,0,0,0,0,0,0,0,0,0,0,0,0,0,0,0,0,0,0,0,0,0,0,0,0,0,0,0,0,0,0,0,0,0,0,0,0,0,0,0,0,0,0,0,0,0,0,0,0,0,0,0,0,0,0,0,0,0,0,0,0,0,0,0,0,0,0,0,0,0,0,0,0,0,0,0,0,0,0,0,0,0,0,0,0,0,0,0,0,0,0,0,0,0,0,0,0,0,0,0,0,0,0,0,0,0,0,0,0,0,0,0,0,0,0,0,0,0,0,0,0,0,0,0,0,0,0,0,0,0,0,0,0,0,0,0,0,0,0,0,0,0,0,0,0,0,0,0,0,0,0,0,0,0,0,0,0,0,0,0,0,0,0,0,0,0,0,0,0,0,0,0,0,0,0,0,0,0,0,0,0,0,0,0,0,0,0,0,0,0,0,0,0,0,0,0,0,0,0,0,0,0,0,0,0,0,0,0,0,0,0,0,0,0,0,0,0,0,0,0,0,0,0,0,0,0,0,0,0,0,0,0,0,0,0,0,0,0,0,0,0,0,0,0,0,0,0,0,0,0,0,0,0,0,0,0,0,0,0,0,0,0,0,0,0,0,0,0,0,0,0,0,0,0,0,0,0,0,0,0,0,0,0,0,0,0,0,0,0,0,0,0,0,0,0,0,0,0,0,0,0,0,0,0,0,0,0,0,0,0,0,0,0,0,0,0,0,0,0,0,0,0,0,0,0,0,0,0,0,0,0,0,0,0,0,0,0,0,0,0,0,0,0,0,0,0,0,0,0,0,0,0,0,0,0,0,0],
"events":[
null,
{"id":1,"name":"Sail_ye_7_seas","note":"","pages":[{"conditions":{"actorId":1,"actorValid":false,"itemId":1,"itemValid":false,"selfSwitchCh":"A","selfSwitchValid":false,"switch1Id":1,"switch1Valid":false,"switch2Id":1,"switch2Valid":false,"variableId":1,"variableValid":false,"variableValue":0},"directionFix":false,"image":{"tileId":0,"characterName":"boatNPC","direction":6,"pattern":2,"characterIndex":0},"list":[{"code":101,"indent":0,"parameters":["boatNPC",0,0,2]},{"code":401,"indent":0,"parameters":["Where do ye want to go?"]},{"code":102,"indent":0,"parameters":[["Somitile Town","No where"],1,0,2,0]},{"code":402,"indent":0,"parameters":[0,"Somitile Town"]},{"code":111,"indent":1,"parameters":[8,11]},{"code":111,"indent":2,"parameters":[8,12]},{"code":101,"indent":3,"parameters":["",0,1,1]},{"code":401,"indent":3,"parameters":["✦Gave 1 Boarding Pass"]},{"code":126,"indent":3,"parameters":[12,1,0,1]},{"code":250,"indent":3,"parameters":[{"name":"Bell2","volume":100,"pitch":100,"pan":0}]},{"code":230,"indent":3,"parameters":[60]},{"code":250,"indent":3,"parameters":[{"name":"Bell2","volume":100,"pitch":100,"pan":0}]},{"code":202,"indent":3,"parameters":[1,0,9,42,14]},{"code":101,"indent":3,"parameters":["boatNPC",0,0,2]},{"code":401,"indent":3,"parameters":["All aboard!"]},{"code":201,"indent":3,"parameters":[0,9,43,14,4,2]},{"code":206,"indent":3,"parameters":[]},{"code":205,"indent":3,"parameters":[-1,{"list":[{"code":4,"indent":null},{"code":4,"indent":null},{"code":4,"indent":null},{"code":4,"indent":null},{"code":4,"indent":null},{"code":4,"indent":null},{"code":4,"indent":null},{"code":4,"indent":null},{"code":4,"indent":null},{"code":4,"indent":null},{"code":4,"indent":null},{"code":2,"indent":null},{"code":2,"indent":null},{"code":2,"indent":null},{"code":2,"indent":null},{"code":2,"indent":null},{"code":2,"indent":null},{"code":2,"indent":null},{"code":2,"indent":null},{"code":2,"indent":null},{"code":2,"indent":null},{"code":2,"indent":null},{"code":2,"indent":null},{"code":2,"indent":null},{"code":2,"indent":null},{"code":2,"indent":null},{"code":2,"indent":null},{"code":2,"indent":null},{"code":2,"indent":null},{"code":2,"indent":null},{"code":2,"indent":null},{"code":2,"indent":null},{"code":2,"indent":null},{"code":2,"indent":null},{"code":2,"indent":null},{"code":2,"indent":null},{"code":2,"indent":null},{"code":2,"indent":null},{"code":2,"indent":null},{"code":2,"indent":null},{"code":2,"indent":null},{"code":2,"indent":null},{"code":2,"indent":null},{"code":2,"indent":null},{"code":2,"indent":null},{"code":2,"indent":null},{"code":2,"indent":null},{"code":0}],"repeat":false,"skippable":true,"wait":true}]},{"code":505,"indent":3,"parameters":[{"code":4,"indent":null}]},{"code":505,"indent":3,"parameters":[{"code":4,"indent":null}]},{"code":505,"indent":3,"parameters":[{"code":4,"indent":null}]},{"code":505,"indent":3,"parameters":[{"code":4,"indent":null}]},{"code":505,"indent":3,"parameters":[{"code":4,"indent":null}]},{"code":505,"indent":3,"parameters":[{"code":4,"indent":null}]},{"code":505,"indent":3,"parameters":[{"code":4,"indent":null}]},{"code":505,"indent":3,"parameters":[{"code":4,"indent":null}]},{"code":505,"indent":3,"parameters":[{"code":4,"indent":null}]},{"code":505,"indent":3,"parameters":[{"code":4,"indent":null}]},{"code":505,"indent":3,"parameters":[{"code":4,"indent":null}]},{"code":505,"indent":3,"parameters":[{"code":2,"indent":null}]},{"code":505,"indent":3,"parameters":[{"code":2,"indent":null}]},{"code":505,"indent":3,"parameters":[{"code":2,"indent":null}]},{"code":505,"indent":3,"parameters":[{"code":2,"indent":null}]},{"code":505,"indent":3,"parameters":[{"code":2,"indent":null}]},{"code":505,"indent":3,"parameters":[{"code":2,"indent":null}]},{"code":505,"indent":3,"parameters":[{"code":2,"indent":null}]},{"code":505,"indent":3,"parameters":[{"code":2,"indent":null}]},{"code":505,"indent":3,"parameters":[{"code":2,"indent":null}]},{"code":505,"indent":3,"parameters":[{"code":2,"indent":null}]},{"code":505,"indent":3,"parameters":[{"code":2,"indent":null}]},{"code":505,"indent":3,"parameters":[{"code":2,"indent":null}]},{"code":505,"indent":3,"parameters":[{"code":2,"indent":null}]},{"code":505,"indent":3,"parameters":[{"code":2,"indent":null}]},{"code":505,"indent":3,"parameters":[{"code":2,"indent":null}]},{"code":505,"indent":3,"parameters":[{"code":2,"indent":null}]},{"code":505,"indent":3,"parameters":[{"code":2,"indent":null}]},{"code":505,"indent":3,"parameters":[{"code":2,"indent":null}]},{"code":505,"indent":3,"parameters":[{"code":2,"indent":null}]},{"code":505,"indent":3,"parameters":[{"code":2,"indent":null}]},{"code":505,"indent":3,"parameters":[{"code":2,"indent":null}]},{"code":505,"indent":3,"parameters":[{"code":2,"indent":null}]},{"code":505,"indent":3,"parameters":[{"code":2,"indent":null}]},{"code":505,"indent":3,"parameters":[{"code":2,"indent":null}]},{"code":505,"indent":3,"parameters":[{"code":2,"indent":null}]},{"code":505,"indent":3,"parameters":[{"code":2,"indent":null}]},{"code":505,"indent":3,"parameters":[{"code":2,"indent":null}]},{"code":505,"indent":3,"parameters":[{"code":2,"indent":null}]},{"code":505,"indent":3,"parameters":[{"code":2,"indent":null}]},{"code":505,"indent":3,"parameters":[{"code":2,"indent":null}]},{"code":505,"indent":3,"parameters":[{"code":2,"indent":null}]},{"code":505,"indent":3,"parameters":[{"code":2,"indent":null}]},{"code":505,"indent":3,"parameters":[{"code":2,"indent":null}]},{"code":505,"indent":3,"parameters":[{"code":2,"indent":null}]},{"code":505,"indent":3,"parameters":[{"code":2,"indent":null}]},{"code":505,"indent":3,"parameters":[{"code":2,"indent":null}]},{"code":250,"indent":3,"parameters":[{"name":"Attack3","volume":100,"pitch":100,"pan":0}]},{"code":201,"indent":3,"parameters":[0,9,5,3,4,1]},{"code":206,"indent":3,"parameters":[]},{"code":202,"indent":3,"parameters":[1,0,9,6,3]},{"code":140,"indent":3,"parameters":[1,{"name":"Ship","volume":90,"pitch":100,"pan":0}]},{"code":132,"indent":3,"parameters":[{"name":"vxAce_Battle6","volume":100,"pitch":90,"pan":0}]},{"code":139,"indent":3,"parameters":[{"name":"vxAce_Gameover1","volume":90,"pitch":100,"pan":0}]},{"code":133,"indent":3,"parameters":[{"name":"vxAce_Victory1","volume":90,"pitch":100,"pan":0}]},{"code":323,"indent":3,"parameters":[0,"vxAce_Vehicle",0]},{"code":323,"indent":3,"parameters":[1,"vxAce_Vehicle",1]},{"code":323,"indent":3,"parameters":[2,"vxAce_Vehicle",3]},{"code":282,"indent":3,"parameters":[8]},{"code":241,"indent":3,"parameters":[{"name":"Ship","volume":90,"pitch":100,"pan":0}]},{"code":122,"indent":3,"parameters":[5,5,0,0,1]},{"code":111,"indent":3,"parameters":[2,"A",1]},{"code":101,"indent":4,"parameters":["Minochi1",0,0,2]},{"code":401,"indent":4,"parameters":["Whaa! Cubuki did you see that? T-The entire"]},{"code":401,"indent":4,"parameters":["world just changed!"]},{"code":101,"indent":4,"parameters":["Cubuki1",0,0,2]},{"code":401,"indent":4,"parameters":["Yea, not only do the people over here look"]},{"code":401,"indent":4,"parameters":["different but the entire world does too?"]},{"code":401,"indent":4,"parameters":["how strange.."]},{"code":123,"indent":4,"parameters":["A",0]},{"code":0,"indent":4,"parameters":[]},{"code":412,"indent":3,"parameters":[]},{"code":0,"indent":3,"parameters":[]},{"code":411,"indent":2,"parameters":[]},{"code":101,"indent":3,"parameters":["boatNPC",0,0,2]},{"code":401,"indent":3,"parameters":["Ye need ye Boarding Pass."]},{"code":0,"indent":3,"parameters":[]},{"code":412,"indent":2,"parameters":[]},{"code":0,"indent":2,"parameters":[]},{"code":411,"indent":1,"parameters":[]},{"code":101,"indent":2,"parameters":["boatNPC",0,0,2]},{"code":401,"indent":2,"parameters":["Ye cant sail here at this time."]},{"code":0,"indent":2,"parameters":[]},{"code":412,"indent":1,"parameters":[]},{"code":0,"indent":1,"parameters":[]},{"code":402,"indent":0,"parameters":[1,"No where"]},{"code":0,"indent":1,"parameters":[]},{"code":404,"indent":0,"parameters":[]},{"code":0,"indent":0,"parameters":[]}],"moveFrequency":3,"moveRoute":{"list":[{"code":0,"parameters":[]}],"repeat":true,"skippable":false,"wait":false},"moveSpeed":3,"moveType":0,"priorityType":1,"stepAnime":false,"through":false,"trigger":0,"walkAnime":true}],"x":43,"y":14},
{"id":2,"name":"Enter Town","note":"","pages":[{"conditions":{"actorId":1,"actorValid":false,"itemId":1,"itemValid":false,"selfSwitchCh":"A","selfSwitchValid":false,"switch1Id":1,"switch1Valid":false,"switch2Id":1,"switch2Valid":false,"variableId":1,"variableValid":false,"variableValue":0},"directionFix":false,"image":{"characterIndex":0,"characterName":"","direction":2,"pattern":0,"tileId":0},"list":[{"code":201,"indent":0,"parameters":[0,1,0,9,0,0]},{"code":0,"indent":0,"parameters":[]}],"moveFrequency":3,"moveRoute":{"list":[{"code":0,"parameters":[]}],"repeat":true,"skippable":false,"wait":false},"moveSpeed":3,"moveType":0,"priorityType":0,"stepAnime":false,"through":false,"trigger":1,"walkAnime":true}],"x":49,"y":14},
{"id":3,"name":"Sail_ye_7_seas","note":"","pages":[{"conditions":{"actorId":1,"actorValid":false,"itemId":1,"itemValid":false,"selfSwitchCh":"A","selfSwitchValid":false,"switch1Id":1,"switch1Valid":false,"switch2Id":1,"switch2Valid":false,"variableId":1,"variableValid":false,"variableValue":0},"directionFix":false,"image":{"tileId":0,"characterName":"vxAce_shipNPC","direction":4,"pattern":1,"characterIndex":0},"list":[{"code":111,"indent":0,"parameters":[1,5,0,1,5]},{"code":117,"indent":1,"parameters":[7]},{"code":0,"indent":1,"parameters":[]},{"code":412,"indent":0,"parameters":[]},{"code":101,"indent":0,"parameters":["vxAce_ShipNPC",0,0,2]},{"code":401,"indent":0,"parameters":["Where do ye want to go?"]},{"code":102,"indent":0,"parameters":[["Sentinal Town","Hendersville","No where."],2,0,2,0]},{"code":402,"indent":0,"parameters":[0,"Sentinal Town"]},{"code":111,"indent":1,"parameters":[8,11]},{"code":111,"indent":2,"parameters":[8,12]},{"code":101,"indent":3,"parameters":["",0,1,1]},{"code":401,"indent":3,"parameters":["✦Gave 1 Boarding Pass"]},{"code":126,"indent":3,"parameters":[12,1,0,1]},{"code":250,"indent":3,"parameters":[{"name":"Bell2","volume":100,"pitch":100,"pan":0}]},{"code":230,"indent":3,"parameters":[60]},{"code":250,"indent":3,"parameters":[{"name":"Bell2","volume":100,"pitch":100,"pan":0}]},{"code":202,"indent":3,"parameters":[1,0,9,6,3]},{"code":101,"indent":3,"parameters":["vxAce_ShipNPC",0,0,2]},{"code":401,"indent":3,"parameters":["All aboard!"]},{"code":201,"indent":3,"parameters":[0,9,5,3,6,2]},{"code":206,"indent":3,"parameters":[]},{"code":205,"indent":3,"parameters":[-1,{"list":[{"code":1,"indent":null},{"code":1,"indent":null},{"code":1,"indent":null},{"code":1,"indent":null},{"code":1,"indent":null},{"code":1,"indent":null},{"code":1,"indent":null},{"code":1,"indent":null},{"code":1,"indent":null},{"code":1,"indent":null},{"code":1,"indent":null},{"code":3,"indent":null},{"code":3,"indent":null},{"code":3,"indent":null},{"code":3,"indent":null},{"code":3,"indent":null},{"code":3,"indent":null},{"code":3,"indent":null},{"code":3,"indent":null},{"code":3,"indent":null},{"code":3,"indent":null},{"code":3,"indent":null},{"code":3,"indent":null},{"code":3,"indent":null},{"code":3,"indent":null},{"code":3,"indent":null},{"code":3,"indent":null},{"code":3,"indent":null},{"code":3,"indent":null},{"code":3,"indent":null},{"code":3,"indent":null},{"code":3,"indent":null},{"code":3,"indent":null},{"code":3,"indent":null},{"code":3,"indent":null},{"code":3,"indent":null},{"code":3,"indent":null},{"code":3,"indent":null},{"code":3,"indent":null},{"code":3,"indent":null},{"code":3,"indent":null},{"code":3,"indent":null},{"code":3,"indent":null},{"code":3,"indent":null},{"code":3,"indent":null},{"code":3,"indent":null},{"code":3,"indent":null},{"code":0}],"repeat":false,"skippable":true,"wait":true}]},{"code":505,"indent":3,"parameters":[{"code":1,"indent":null}]},{"code":505,"indent":3,"parameters":[{"code":1,"indent":null}]},{"code":505,"indent":3,"parameters":[{"code":1,"indent":null}]},{"code":505,"indent":3,"parameters":[{"code":1,"indent":null}]},{"code":505,"indent":3,"parameters":[{"code":1,"indent":null}]},{"code":505,"indent":3,"parameters":[{"code":1,"indent":null}]},{"code":505,"indent":3,"parameters":[{"code":1,"indent":null}]},{"code":505,"indent":3,"parameters":[{"code":1,"indent":null}]},{"code":505,"indent":3,"parameters":[{"code":1,"indent":null}]},{"code":505,"indent":3,"parameters":[{"code":1,"indent":null}]},{"code":505,"indent":3,"parameters":[{"code":1,"indent":null}]},{"code":505,"indent":3,"parameters":[{"code":3,"indent":null}]},{"code":505,"indent":3,"parameters":[{"code":3,"indent":null}]},{"code":505,"indent":3,"parameters":[{"code":3,"indent":null}]},{"code":505,"indent":3,"parameters":[{"code":3,"indent":null}]},{"code":505,"indent":3,"parameters":[{"code":3,"indent":null}]},{"code":505,"indent":3,"parameters":[{"code":3,"indent":null}]},{"code":505,"indent":3,"parameters":[{"code":3,"indent":null}]},{"code":505,"indent":3,"parameters":[{"code":3,"indent":null}]},{"code":505,"indent":3,"parameters":[{"code":3,"indent":null}]},{"code":505,"indent":3,"parameters":[{"code":3,"indent":null}]},{"code":505,"indent":3,"parameters":[{"code":3,"indent":null}]},{"code":505,"indent":3,"parameters":[{"code":3,"indent":null}]},{"code":505,"indent":3,"parameters":[{"code":3,"indent":null}]},{"code":505,"indent":3,"parameters":[{"code":3,"indent":null}]},{"code":505,"indent":3,"parameters":[{"code":3,"indent":null}]},{"code":505,"indent":3,"parameters":[{"code":3,"indent":null}]},{"code":505,"indent":3,"parameters":[{"code":3,"indent":null}]},{"code":505,"indent":3,"parameters":[{"code":3,"indent":null}]},{"code":505,"indent":3,"parameters":[{"code":3,"indent":null}]},{"code":505,"indent":3,"parameters":[{"code":3,"indent":null}]},{"code":505,"indent":3,"parameters":[{"code":3,"indent":null}]},{"code":505,"indent":3,"parameters":[{"code":3,"indent":null}]},{"code":505,"indent":3,"parameters":[{"code":3,"indent":null}]},{"code":505,"indent":3,"parameters":[{"code":3,"indent":null}]},{"code":505,"indent":3,"parameters":[{"code":3,"indent":null}]},{"code":505,"indent":3,"parameters":[{"code":3,"indent":null}]},{"code":505,"indent":3,"parameters":[{"code":3,"indent":null}]},{"code":505,"indent":3,"parameters":[{"code":3,"indent":null}]},{"code":505,"indent":3,"parameters":[{"code":3,"indent":null}]},{"code":505,"indent":3,"parameters":[{"code":3,"indent":null}]},{"code":505,"indent":3,"parameters":[{"code":3,"indent":null}]},{"code":505,"indent":3,"parameters":[{"code":3,"indent":null}]},{"code":505,"indent":3,"parameters":[{"code":3,"indent":null}]},{"code":505,"indent":3,"parameters":[{"code":3,"indent":null}]},{"code":505,"indent":3,"parameters":[{"code":3,"indent":null}]},{"code":505,"indent":3,"parameters":[{"code":3,"indent":null}]},{"code":250,"indent":3,"parameters":[{"name":"Attack3","volume":100,"pitch":100,"pan":0}]},{"code":201,"indent":3,"parameters":[0,9,43,14,6,1]},{"code":206,"indent":3,"parameters":[]},{"code":202,"indent":3,"parameters":[1,0,9,42,14]},{"code":140,"indent":3,"parameters":[1,{"name":"Ship3","volume":100,"pitch":100,"pan":0}]},{"code":132,"indent":3,"parameters":[{"name":"03_Endless_Battle","volume":100,"pitch":90,"pan":0}]},{"code":139,"indent":3,"parameters":[{"name":"Defeat2","volume":90,"pitch":100,"pan":0}]},{"code":133,"indent":3,"parameters":[{"name":"Victory2","volume":90,"pitch":100,"pan":0}]},{"code":323,"indent":3,"parameters":[0,"Vehicle",0]},{"code":323,"indent":3,"parameters":[1,"Vehicle",1]},{"code":323,"indent":3,"parameters":[2,"Vehicle",3]},{"code":282,"indent":3,"parameters":[2]},{"code":241,"indent":3,"parameters":[{"name":"Ship3","volume":90,"pitch":100,"pan":0}]},{"code":122,"indent":3,"parameters":[5,5,0,0,0]},{"code":0,"indent":3,"parameters":[]},{"code":411,"indent":2,"parameters":[]},{"code":101,"indent":3,"parameters":["vxAce_ShipNPC",0,0,2]},{"code":401,"indent":3,"parameters":["Ye need ye Boarding Pass."]},{"code":0,"indent":3,"parameters":[]},{"code":412,"indent":2,"parameters":[]},{"code":0,"indent":2,"parameters":[]},{"code":411,"indent":1,"parameters":[]},{"code":101,"indent":2,"parameters":["vxAce_ShipNPC",0,0,2]},{"code":401,"indent":2,"parameters":["Ye cant sail here at this time."]},{"code":0,"indent":2,"parameters":[]},{"code":412,"indent":1,"parameters":[]},{"code":0,"indent":1,"parameters":[]},{"code":402,"indent":0,"parameters":[1,"Hendersville"]},{"code":111,"indent":1,"parameters":[8,17]},{"code":111,"indent":2,"parameters":[8,12]},{"code":101,"indent":3,"parameters":["",0,1,1]},{"code":401,"indent":3,"parameters":["✦Gave 1 Boarding Pass"]},{"code":126,"indent":3,"parameters":[12,1,0,1]},{"code":250,"indent":3,"parameters":[{"name":"Bell2","volume":100,"pitch":100,"pan":0}]},{"code":230,"indent":3,"parameters":[60]},{"code":250,"indent":3,"parameters":[{"name":"Bell2","volume":100,"pitch":100,"pan":0}]},{"code":202,"indent":3,"parameters":[1,0,9,6,3]},{"code":101,"indent":3,"parameters":["vxAce_ShipNPC",0,0,2]},{"code":401,"indent":3,"parameters":["All aboard!"]},{"code":201,"indent":3,"parameters":[0,9,5,3,6,2]},{"code":206,"indent":3,"parameters":[]},{"code":205,"indent":3,"parameters":[-1,{"list":[{"code":1,"indent":null},{"code":1,"indent":null},{"code":1,"indent":null},{"code":1,"indent":null},{"code":1,"indent":null},{"code":1,"indent":null},{"code":1,"indent":null},{"code":1,"indent":null},{"code":1,"indent":null},{"code":1,"indent":null},{"code":1,"indent":null},{"code":1,"indent":null},{"code":17,"indent":null},{"code":0}],"repeat":false,"skippable":true,"wait":true}]},{"code":505,"indent":3,"parameters":[{"code":1,"indent":null}]},{"code":505,"indent":3,"parameters":[{"code":1,"indent":null}]},{"code":505,"indent":3,"parameters":[{"code":1,"indent":null}]},{"code":505,"indent":3,"parameters":[{"code":1,"indent":null}]},{"code":505,"indent":3,"parameters":[{"code":1,"indent":null}]},{"code":505,"indent":3,"parameters":[{"code":1,"indent":null}]},{"code":505,"indent":3,"parameters":[{"code":1,"indent":null}]},{"code":505,"indent":3,"parameters":[{"code":1,"indent":null}]},{"code":505,"indent":3,"parameters":[{"code":1,"indent":null}]},{"code":505,"indent":3,"parameters":[{"code":1,"indent":null}]},{"code":505,"indent":3,"parameters":[{"code":1,"indent":null}]},{"code":505,"indent":3,"parameters":[{"code":1,"indent":null}]},{"code":505,"indent":3,"parameters":[{"code":17,"indent":null}]},{"code":250,"indent":3,"parameters":[{"name":"Attack3","volume":100,"pitch":100,"pan":0}]},{"code":201,"indent":3,"parameters":[0,9,5,15,4,1]},{"code":206,"indent":3,"parameters":[]},{"code":202,"indent":3,"parameters":[1,0,9,6,15]},{"code":140,"indent":3,"parameters":[1,{"name":"Ship3","volume":100,"pitch":100,"pan":0}]},{"code":132,"indent":3,"parameters":[{"name":"03_Endless_Battle","volume":100,"pitch":90,"pan":0}]},{"code":139,"indent":3,"parameters":[{"name":"Defeat2","volume":90,"pitch":100,"pan":0}]},{"code":133,"indent":3,"parameters":[{"name":"Victory2","volume":90,"pitch":100,"pan":0}]},{"code":323,"indent":3,"parameters":[0,"Vehicle",0]},{"code":323,"indent":3,"parameters":[1,"Vehicle",1]},{"code":323,"indent":3,"parameters":[2,"Vehicle",3]},{"code":282,"indent":3,"parameters":[2]},{"code":241,"indent":3,"parameters":[{"name":"Ship3","volume":90,"pitch":100,"pan":0}]},{"code":122,"indent":3,"parameters":[5,5,0,0,0]},{"code":0,"indent":3,"parameters":[]},{"code":411,"indent":2,"parameters":[]},{"code":101,"indent":3,"parameters":["vxAce_ShipNPC",0,0,2]},{"code":401,"indent":3,"parameters":["Ye need ye Boarding Pass."]},{"code":0,"indent":3,"parameters":[]},{"code":412,"indent":2,"parameters":[]},{"code":0,"indent":2,"parameters":[]},{"code":411,"indent":1,"parameters":[]},{"code":101,"indent":2,"parameters":["vxAce_ShipNPC",0,0,2]},{"code":401,"indent":2,"parameters":["Ye cant sail here at this time."]},{"code":0,"indent":2,"parameters":[]},{"code":412,"indent":1,"parameters":[]},{"code":0,"indent":1,"parameters":[]},{"code":402,"indent":0,"parameters":[2,"No where."]},{"code":0,"indent":1,"parameters":[]},{"code":404,"indent":0,"parameters":[]},{"code":0,"indent":0,"parameters":[]}],"moveFrequency":3,"moveRoute":{"list":[{"code":0,"parameters":[]}],"repeat":true,"skippable":false,"wait":false},"moveSpeed":3,"moveType":0,"priorityType":1,"stepAnime":false,"through":false,"trigger":0,"walkAnime":true}],"x":5,"y":3},
{"id":4,"name":"Sail_ye_7_seas","note":"","pages":[{"conditions":{"actorId":1,"actorValid":false,"itemId":1,"itemValid":false,"selfSwitchCh":"A","selfSwitchValid":false,"switch1Id":1,"switch1Valid":false,"switch2Id":1,"switch2Valid":false,"variableId":1,"variableValid":false,"variableValue":0},"directionFix":false,"image":{"tileId":0,"characterName":"boatNPC","direction":4,"pattern":0,"characterIndex":0},"list":[{"code":101,"indent":0,"parameters":["boatNPC",0,0,2]},{"code":401,"indent":0,"parameters":["Where do ye want to go?"]},{"code":102,"indent":0,"parameters":[["Somitile Town","No where"],1,0,2,0]},{"code":402,"indent":0,"parameters":[0,"Somitile Town"]},{"code":111,"indent":1,"parameters":[8,11]},{"code":111,"indent":2,"parameters":[8,12]},{"code":101,"indent":3,"parameters":["",0,1,1]},{"code":401,"indent":3,"parameters":["✦Gave 1 Boarding Pass"]},{"code":126,"indent":3,"parameters":[12,1,0,1]},{"code":250,"indent":3,"parameters":[{"name":"Bell2","volume":100,"pitch":100,"pan":0}]},{"code":230,"indent":3,"parameters":[60]},{"code":250,"indent":3,"parameters":[{"name":"Bell2","volume":100,"pitch":100,"pan":0}]},{"code":202,"indent":3,"parameters":[1,0,9,6,15]},{"code":101,"indent":3,"parameters":["boatNPC",0,0,2]},{"code":401,"indent":3,"parameters":["All aboard!"]},{"code":201,"indent":3,"parameters":[0,9,5,15,6,2]},{"code":206,"indent":3,"parameters":[]},{"code":205,"indent":3,"parameters":[-1,{"list":[{"code":4,"indent":null},{"code":4,"indent":null},{"code":4,"indent":null},{"code":4,"indent":null},{"code":4,"indent":null},{"code":4,"indent":null},{"code":4,"indent":null},{"code":4,"indent":null},{"code":4,"indent":null},{"code":4,"indent":null},{"code":4,"indent":null},{"code":4,"indent":null},{"code":17,"indent":null},{"code":0}],"repeat":false,"skippable":true,"wait":true}]},{"code":505,"indent":3,"parameters":[{"code":4,"indent":null}]},{"code":505,"indent":3,"parameters":[{"code":4,"indent":null}]},{"code":505,"indent":3,"parameters":[{"code":4,"indent":null}]},{"code":505,"indent":3,"parameters":[{"code":4,"indent":null}]},{"code":505,"indent":3,"parameters":[{"code":4,"indent":null}]},{"code":505,"indent":3,"parameters":[{"code":4,"indent":null}]},{"code":505,"indent":3,"parameters":[{"code":4,"indent":null}]},{"code":505,"indent":3,"parameters":[{"code":4,"indent":null}]},{"code":505,"indent":3,"parameters":[{"code":4,"indent":null}]},{"code":505,"indent":3,"parameters":[{"code":4,"indent":null}]},{"code":505,"indent":3,"parameters":[{"code":4,"indent":null}]},{"code":505,"indent":3,"parameters":[{"code":4,"indent":null}]},{"code":505,"indent":3,"parameters":[{"code":17,"indent":null}]},{"code":250,"indent":3,"parameters":[{"name":"Attack3","volume":100,"pitch":100,"pan":0}]},{"code":201,"indent":3,"parameters":[0,9,5,3,4,1]},{"code":206,"indent":3,"parameters":[]},{"code":202,"indent":3,"parameters":[1,0,9,6,3]},{"code":140,"indent":3,"parameters":[1,{"name":"Ship","volume":90,"pitch":100,"pan":0}]},{"code":132,"indent":3,"parameters":[{"name":"vxAce_Battle6","volume":100,"pitch":90,"pan":0}]},{"code":139,"indent":3,"parameters":[{"name":"vxAce_Gameover1","volume":90,"pitch":100,"pan":0}]},{"code":133,"indent":3,"parameters":[{"name":"vxAce_Victory1","volume":90,"pitch":100,"pan":0}]},{"code":323,"indent":3,"parameters":[0,"vxAce_Vehicle",0]},{"code":323,"indent":3,"parameters":[1,"vxAce_Vehicle",1]},{"code":323,"indent":3,"parameters":[2,"vxAce_Vehicle",3]},{"code":282,"indent":3,"parameters":[8]},{"code":241,"indent":3,"parameters":[{"name":"Ship","volume":90,"pitch":100,"pan":0}]},{"code":122,"indent":3,"parameters":[5,5,0,0,1]},{"code":0,"indent":3,"parameters":[]},{"code":411,"indent":2,"parameters":[]},{"code":101,"indent":3,"parameters":["boatNPC",0,0,2]},{"code":401,"indent":3,"parameters":["Ye need ye Boarding Pass."]},{"code":0,"indent":3,"parameters":[]},{"code":412,"indent":2,"parameters":[]},{"code":0,"indent":2,"parameters":[]},{"code":411,"indent":1,"parameters":[]},{"code":101,"indent":2,"parameters":["boatNPC",0,0,2]},{"code":401,"indent":2,"parameters":["Ye cant sail here at this time."]},{"code":0,"indent":2,"parameters":[]},{"code":412,"indent":1,"parameters":[]},{"code":0,"indent":1,"parameters":[]},{"code":402,"indent":0,"parameters":[1,"No where"]},{"code":0,"indent":1,"parameters":[]},{"code":404,"indent":0,"parameters":[]},{"code":0,"indent":0,"parameters":[]}],"moveFrequency":3,"moveRoute":{"list":[{"code":0,"parameters":[]}],"repeat":true,"skippable":false,"wait":false},"moveSpeed":3,"moveType":0,"priorityType":1,"stepAnime":false,"through":false,"trigger":0,"walkAnime":true}],"x":5,"y":15},
{"id":5,"name":"Goto ","note":"","pages":[{"conditions":{"actorId":1,"actorValid":false,"itemId":1,"itemValid":false,"selfSwitchCh":"A","selfSwitchValid":false,"switch1Id":1,"switch1Valid":false,"switch2Id":1,"switch2Valid":false,"variableId":1,"variableValid":false,"variableValue":0},"directionFix":false,"image":{"characterIndex":0,"characterName":"","direction":2,"pattern":0,"tileId":0},"list":[{"code":201,"indent":0,"parameters":[0,10,30,14,0,0]},{"code":0,"indent":0,"parameters":[]}],"moveFrequency":3,"moveRoute":{"list":[{"code":0,"parameters":[]}],"repeat":true,"skippable":false,"wait":false},"moveSpeed":3,"moveType":0,"priorityType":0,"stepAnime":false,"through":false,"trigger":1,"walkAnime":true}],"x":0,"y":3},
{"id":6,"name":"EV006","note":"","pages":[{"conditions":{"actorId":1,"actorValid":false,"itemId":1,"itemValid":false,"selfSwitchCh":"A","selfSwitchValid":false,"switch1Id":1,"switch1Valid":false,"switch2Id":1,"switch2Valid":false,"variableId":1,"variableValid":false,"variableValue":0},"directionFix":false,"image":{"characterIndex":0,"characterName":"","direction":2,"pattern":0,"tileId":0},"list":[{"code":111,"indent":0,"parameters":[1,5,0,0,0]},{"code":202,"indent":1,"parameters":[1,0,9,42,14]},{"code":140,"indent":1,"parameters":[1,{"name":"Ship3","volume":100,"pitch":100,"pan":0}]},{"code":132,"indent":1,"parameters":[{"name":"03_Endless_Battle","volume":100,"pitch":90,"pan":0}]},{"code":139,"indent":1,"parameters":[{"name":"Defeat2","volume":90,"pitch":100,"pan":0}]},{"code":133,"indent":1,"parameters":[{"name":"Victory2","volume":90,"pitch":100,"pan":0}]},{"code":323,"indent":1,"parameters":[0,"Vehicle",0]},{"code":323,"indent":1,"parameters":[1,"Vehicle",1]},{"code":323,"indent":1,"parameters":[2,"Vehicle",3]},{"code":282,"indent":1,"parameters":[2]},{"code":241,"indent":1,"parameters":[{"name":"Ship3","volume":90,"pitch":100,"pan":0}]},{"code":0,"indent":1,"parameters":[]},{"code":411,"indent":0,"parameters":[]},{"code":111,"indent":1,"parameters":[1,5,0,1,0]},{"code":202,"indent":2,"parameters":[1,0,9,6,3]},{"code":140,"indent":2,"parameters":[1,{"name":"Ship","volume":90,"pitch":100,"pan":0}]},{"code":132,"indent":2,"parameters":[{"name":"vxAce_Battle6","volume":100,"pitch":90,"pan":0}]},{"code":139,"indent":2,"parameters":[{"name":"vxAce_Gameover1","volume":90,"pitch":100,"pan":0}]},{"code":133,"indent":2,"parameters":[{"name":"vxAce_Victory1","volume":90,"pitch":100,"pan":0}]},{"code":323,"indent":2,"parameters":[0,"vxAce_Vehicle",0]},{"code":323,"indent":2,"parameters":[1,"vxAce_Vehicle",1]},{"code":323,"indent":2,"parameters":[2,"vxAce_Vehicle",3]},{"code":282,"indent":2,"parameters":[8]},{"code":241,"indent":2,"parameters":[{"name":"Ship","volume":90,"pitch":100,"pan":0}]},{"code":0,"indent":2,"parameters":[]},{"code":411,"indent":1,"parameters":[]},{"code":0,"indent":2,"parameters":[]},{"code":412,"indent":1,"parameters":[]},{"code":0,"indent":1,"parameters":[]},{"code":412,"indent":0,"parameters":[]},{"code":214,"indent":0,"parameters":[]},{"code":0,"indent":0,"parameters":[]}],"moveFrequency":3,"moveRoute":{"list":[{"code":0,"parameters":[]}],"repeat":true,"skippable":false,"wait":false},"moveSpeed":3,"moveType":0,"priorityType":2,"stepAnime":false,"through":false,"trigger":3,"walkAnime":true}],"x":0,"y":0},
{"id":7,"name":"EV007","note":"","pages":[{"conditions":{"actorId":1,"actorValid":false,"itemId":1,"itemValid":false,"selfSwitchCh":"A","selfSwitchValid":false,"switch1Id":1,"switch1Valid":false,"switch2Id":1,"switch2Valid":false,"variableId":1,"variableValid":false,"variableValue":0},"directionFix":false,"image":{"characterIndex":0,"characterName":"","direction":2,"pattern":0,"tileId":0},"list":[{"code":250,"indent":0,"parameters":[{"name":"Move1","volume":90,"pitch":100,"pan":0}]},{"code":201,"indent":0,"parameters":[0,21,30,15,0,0]},{"code":0,"indent":0,"parameters":[]}],"moveFrequency":3,"moveRoute":{"list":[{"code":0,"parameters":[]}],"repeat":true,"skippable":false,"wait":false},"moveSpeed":3,"moveType":0,"priorityType":0,"stepAnime":false,"through":false,"trigger":1,"walkAnime":true}],"x":0,"y":15}
]
}